自主ゼミ：因子分析
…
3 FA by SVD

3.1 unrotated

\(Z = (\sqrt{n}U)DV'\)

\(OBS = F=(\sqrt{n}U)\)

\(VAR = L'=VD'\)

svd.Z <- svd(Z/sqrt(n-1))
OBS <- svd.Z$u*sqrt(n-1) 
OBS %>% round(2) %>% as.data.frame() %>% tbl_df()

## # A tibble: 50 x 7
##       V1    V2     V3    V4    V5    V6    V7
##    <dbl> <dbl>  <dbl> <dbl> <dbl> <dbl> <dbl>
##  1  0.02 -1.88  0.59   0.45  0.98  0.92  0.34
##  2 -1.19  0.15 -0.08   2.06  2.89 -3.18  1.32
##  3 -1.49  0.76 -2.06  -0.21  0.55  2.27  0.16
##  4  0.52 -1.21 -0.02   0.04  0.04 -0.82 -0.88
##  5 -2.11  0.13  0.32   0.04  0.11 -0.8  -1.32
##  6 -1.24  0.82 -1.35   0.2  -0.33 -0.7  -0.68
##  7  0.27  1.35  0.92   0.15  0.36  0.6  -0.25
##  8 -0.48  1.17 -0.62  -0.74 -0.04  0.86  0.59
##  9 -1.53 -0.54 -1.43   0.88 -1.61  0.61  1.02
## 10 -0.24 -1.24  0.290 -0.11  0.4   0.05 -0.94
## # … with 40 more rows
…
##       [,1]  [,2]  [,3]  [,4]  [,5]  [,6]  [,7]
## [1,] -0.61 -0.70  0.15 -0.13  0.27  0.12  0.09
## [2,] -0.88 -0.19 -0.21  0.03  0.10 -0.36 -0.10
## [3,] -0.81  0.05  0.42 -0.31 -0.26 -0.05  0.00
## [4,] -0.80 -0.38 -0.06  0.35 -0.26  0.08  0.07
## [5,] -0.89  0.23 -0.18 -0.03  0.05  0.25 -0.23
## [6,] -0.72  0.45 -0.46 -0.13  0.02  0.02  0.21
## [7,] -0.60  0.56  0.48  0.24  0.19 -0.03  0.05

rownames(OBS) <- rownames(X)
rownames(VAR) <- colnames(X)

OBS %>% as.data.frame() %>% tbl_df()

## # A tibble: 50 x 7
##         V1     V2      V3      V4      V5      V6     V7
##      <dbl>  <dbl>   <dbl>   <dbl>   <dbl>   <dbl>  <dbl>
##  1  0.0246 -1.88   0.589   0.446   0.981   0.920   0.335
##  2 -1.19    0.150 -0.0818  2.06    2.89   -3.18    1.32 
##  3 -1.49    0.759 -2.06   -0.207   0.552   2.27    0.163
##  4  0.520  -1.21  -0.0215  0.0383  0.0447 -0.819  -0.882
##  5 -2.11    0.129  0.324   0.0447  0.114  -0.800  -1.32 
##  6 -1.24    0.824 -1.35    0.200  -0.333  -0.703  -0.683
##  7  0.267   1.35   0.920   0.153   0.364   0.597  -0.254
##  8 -0.476   1.17  -0.617  -0.742  -0.0369  0.856   0.585
##  9 -1.53   -0.543 -1.43    0.880  -1.61    0.615   1.02 
## 10 -0.242  -1.24   0.287  -0.111   0.398   0.0547 -0.943
## # … with 40 more rows
…
