RethinkingLE_EX.R
…
d %>% tbl_df()

## Warning: `tbl_df()` was deprecated in dplyr 1.0.0.
## Please use `tibble::as_tibble()` instead.

## # A tibble: 544 x 4
##    height weight   age  male
##     <dbl>  <dbl> <dbl> <int>
##  1   152.   47.8    63     1
##  2   140.   36.5    63     0
##  3   137.   31.9    65     0
##  4   157.   53.0    41     1
##  5   145.   41.3    51     0
##  6   164.   63.0    35     1
##  7   149.   38.2    32     0
##  8   169.   55.5    27     1
##  9   148.   34.9    19     0
## 10   165.   54.5    54     1
## #  with 534 more rows
…
link(m4.3) %>% dim()

## [1] 1000  352

HPDI(mu_at_50)

##    |0.89    0.89| 
## 158.5684 159.6466

mu_at_50 %>% tbl_df()

## # A tibble: 10,000 x 1
##    value
##    <dbl>
##  1  159.
##  2  159.
##  3  160.
##  4  159.
##  5  159.
##  6  159.
##  7  160.
##  8  159.
##  9  160.
## 10  159.
## #  with 9,990 more rows
…
